{
	"IcoMoonType": "selection",
	"icons": [
		{
			"icon": {
				"paths": [
					"M709.651 461.536c5.257 17.873 8.411 36.797 8.411 56.772 0 110.39-92.517 199.754-206.062 199.754s-206.062-89.363-206.062-199.754c0-19.975 3.154-38.899 8.411-56.772h-60.977v278.604c0 14.719 11.565 26.283 26.283 26.283h460.485c14.719 0 26.283-11.565 26.283-26.283v-279.655h-56.772z",
					"M663.392 385.84h74.645c16.821 0 29.437-13.667 29.437-29.437v-71.491c0-16.821-13.667-29.437-29.437-29.437h-74.645c-16.821 0-29.437 13.667-29.437 29.437v71.491c-1.051 15.77 12.616 29.437 29.437 29.437z",
					"M645.52 510.949c0 70.838-59.308 128.263-132.468 128.263s-132.468-57.425-132.468-128.263c0-70.838 59.308-128.263 132.468-128.263s132.468 57.425 132.468 128.263z",
					"M512 0c-282.809 0-512 229.191-512 512s229.191 512 512 512c282.809 0 512-229.191 512-512s-229.191-512-512-512zM843.17 758.012c0 50.464-37.848 85.158-85.158 85.158h-492.025c-46.259 0-85.158-34.694-85.158-85.158v-492.025c0-50.464 37.848-85.158 85.158-85.158h492.025c46.259 0 85.158 34.694 85.158 85.158v492.025z"
				],
				"attrs": [
					{},
					{},
					{},
					{}
				],
				"isMulticolor": false,
				"grid": 0,
				"tags": [
					"instagram12-01"
				],
				"colorPermutations": {
					"6868681": [
						0,
						0,
						0,
						0
					]
				}
			},
			"attrs": [
				{},
				{},
				{},
				{}
			],
			"properties": {
				"order": 1,
				"id": 0,
				"prevSize": 97,
				"code": 58880,
				"name": "instagram12-01"
			},
			"setIdx": 0,
			"setId": 2,
			"iconIdx": 0
		}
	],
	"height": 1024,
	"metadata": {
		"name": "icomoon"
	},
	"preferences": {
		"showGlyphs": true,
		"showQuickUse": true,
		"showQuickUse2": true,
		"showSVGs": true,
		"fontPref": {
			"prefix": "icon-",
			"metadata": {
				"fontFamily": "icomoon"
			},
			"metrics": {
				"emSize": 1024,
				"baseline": 6.25,
				"whitespace": 50
			}
		},
		"imagePref": {
			"prefix": "icon-",
			"png": true,
			"useClassSelector": true,
			"color": 4473924,
			"bgColor": 16777215
		},
		"historySize": 100,
		"showCodes": true
	}
}